{
  "project_info": {
    "project_number": "891067495988",
    "firebase_url": "https://teacheryello.firebaseio.com",
    "project_id": "teacheryello",
    "storage_bucket": "teacheryello.appspot.com"
  },
  "client": [
    {
      "client_info": {
        "mobilesdk_app_id": "1:891067495988:android:a2cb7ba8987a9a59",
        "android_client_info": {
          "package_name": "com.gabri.teacheryelloapp"
        }
      },
      "oauth_client": [
        {
          "client_id": "891067495988-941sqoreo4b67uja12ht3n6gh21acgsa.apps.googleusercontent.com",
          "client_type": 3
        }
      ],
      "api_key": [
        {
          "current_key": "AIzaSyCrf1aubn9LoK51WloH5ZpQLQvQUW1Yi9s"
        }
      ],
      "services": {
        "analytics_service": {
          "status": 1
        },
        "appinvite_service": {
          "status": 1,
          "other_platform_oauth_client": []
        },
        "ads_service": {
          "status": 2
        }
      }
    }
  ],
  "configuration_version": "1"
}